simulation/qsim/processorDebug.msim.vcd
$comment
	File created using the following command:
		vcd file processorDebug.msim.vcd -direction
$end
$date
	Sat Nov 10 00:04:38 2018
$end
$version
	ModelSim Version 10.5b
$end
$timescale
	1ps
$end

$scope module zeroextend_vlg_vec_tst $end
$var reg 32 ! IN [31:0] $end
$var wire 1 " OUT [31] $end
$var wire 1 # OUT [30] $end
$var wire 1 $ OUT [29] $end
$var wire 1 % OUT [28] $end
$var wire 1 & OUT [27] $end
$var wire 1 ' OUT [26] $end
$var wire 1 ( OUT [25] $end
$var wire 1 ) OUT [24] $end
$var wire 1 * OUT [23] $end
$var wire 1 + OUT [22] $end
$var wire 1 , OUT [21] $end
$var wire 1 - OUT [20] $end
$var wire 1 . OUT [19] $end
$var wire 1 / OUT [18] $end
$var wire 1 0 OUT [17] $end
$var wire 1 1 OUT [16] $end
$var wire 1 2 OUT [15] $end
$var wire 1 3 OUT [14] $end
$var wire 1 4 OUT [13] $end
$var wire 1 5 OUT [12] $end
$var wire 1 6 OUT [11] $end
$var wire 1 7 OUT [10] $end
$var wire 1 8 OUT [9] $end
$var wire 1 9 OUT [8] $end
$var wire 1 : OUT [7] $end
$var wire 1 ; OUT [6] $end
$var wire 1 < OUT [5] $end
$var wire 1 = OUT [4] $end
$var wire 1 > OUT [3] $end
$var wire 1 ? OUT [2] $end
$var wire 1 @ OUT [1] $end
$var wire 1 A OUT [0] $end

$scope module i1 $end
$var wire 1 B gnd $end
$var wire 1 C vcc $end
$var wire 1 D unknown $end
$var tri1 1 E devclrn $end
$var tri1 1 F devpor $end
$var tri1 1 G devoe $end
$var wire 1 H IN[30]~input_o $end
$var wire 1 I IN[29]~input_o $end
$var wire 1 J IN[28]~input_o $end
$var wire 1 K IN[27]~input_o $end
$var wire 1 L IN[26]~input_o $end
$var wire 1 M IN[25]~input_o $end
$var wire 1 N IN[24]~input_o $end
$var wire 1 O IN[23]~input_o $end
$var wire 1 P IN[22]~input_o $end
$var wire 1 Q IN[21]~input_o $end
$var wire 1 R IN[20]~input_o $end
$var wire 1 S IN[19]~input_o $end
$var wire 1 T IN[18]~input_o $end
$var wire 1 U IN[17]~input_o $end
$var wire 1 V IN[16]~input_o $end
$var wire 1 W IN[15]~input_o $end
$var wire 1 X IN[14]~input_o $end
$var wire 1 Y IN[13]~input_o $end
$var wire 1 Z IN[12]~input_o $end
$var wire 1 [ IN[11]~input_o $end
$var wire 1 \ IN[10]~input_o $end
$var wire 1 ] IN[9]~input_o $end
$var wire 1 ^ IN[8]~input_o $end
$var wire 1 _ IN[7]~input_o $end
$var wire 1 ` IN[6]~input_o $end
$var wire 1 a IN[5]~input_o $end
$var wire 1 b IN[4]~input_o $end
$var wire 1 c IN[3]~input_o $end
$var wire 1 d IN[2]~input_o $end
$var wire 1 e IN[1]~input_o $end
$var wire 1 f IN[0]~input_o $end
$var wire 1 g OUT[31]~output_o $end
$var wire 1 h OUT[30]~output_o $end
$var wire 1 i OUT[29]~output_o $end
$var wire 1 j OUT[28]~output_o $end
$var wire 1 k OUT[27]~output_o $end
$var wire 1 l OUT[26]~output_o $end
$var wire 1 m OUT[25]~output_o $end
$var wire 1 n OUT[24]~output_o $end
$var wire 1 o OUT[23]~output_o $end
$var wire 1 p OUT[22]~output_o $end
$var wire 1 q OUT[21]~output_o $end
$var wire 1 r OUT[20]~output_o $end
$var wire 1 s OUT[19]~output_o $end
$var wire 1 t OUT[18]~output_o $end
$var wire 1 u OUT[17]~output_o $end
$var wire 1 v OUT[16]~output_o $end
$var wire 1 w OUT[15]~output_o $end
$var wire 1 x OUT[14]~output_o $end
$var wire 1 y OUT[13]~output_o $end
$var wire 1 z OUT[12]~output_o $end
$var wire 1 { OUT[11]~output_o $end
$var wire 1 | OUT[10]~output_o $end
$var wire 1 } OUT[9]~output_o $end
$var wire 1 ~ OUT[8]~output_o $end
$var wire 1 !! OUT[7]~output_o $end
$var wire 1 "! OUT[6]~output_o $end
$var wire 1 #! OUT[5]~output_o $end
$var wire 1 $! OUT[4]~output_o $end
$var wire 1 %! OUT[3]~output_o $end
$var wire 1 &! OUT[2]~output_o $end
$var wire 1 '! OUT[1]~output_o $end
$var wire 1 (! OUT[0]~output_o $end
$var wire 1 )! IN[31]~input_o $end
$upscope $end
$upscope $end
$enddefinitions $end
#0
$dumpvars
b11100111010100001000110000100110 !
1A
0@
0?
0>
0=
0<
0;
0:
09
08
07
06
05
04
03
02
01
00
0/
0.
0-
0,
0+
0*
0)
0(
0'
0&
0%
0$
0#
0"
0B
1C
xD
1E
1F
1G
1H
1I
0J
0K
1L
1M
1N
0O
1P
0Q
1R
0S
0T
0U
0V
1W
0X
0Y
0Z
1[
1\
0]
0^
0_
0`
1a
0b
0c
1d
1e
0f
0g
0h
0i
0j
0k
0l
0m
0n
0o
0p
0q
0r
0s
0t
0u
0v
0w
0x
0y
0z
0{
0|
0}
0~
0!!
0"!
0#!
0$!
0%!
0&!
0'!
1(!
1)!
$end
#1000000
b11000111010100001000110000100110 !
b11000011010100001000110000100110 !
b11000001010100001000110000100110 !
b11000001110100001000110000100110 !
b11000001100100001000110000100110 !
b11000001101100001000110000100110 !
b11000001101000001000110000100110 !
b11000001101000101000110000100110 !
b11000001101000101100110000100110 !
b11000001101000101110110000100110 !
b11000001101000101111110000100110 !
b11000001101000101111010000100110 !
b11000001101000101111011000100110 !
b11000001101000101111011100100110 !
b11000001101000101111011101100110 !
b11000001101000101111011101110110 !
b11000001101000101111011101111110 !
b11000001101000101111011101111111 !
0I
0L
0M
1O
0P
1Q
0R
1U
1X
1Y
1Z
0[
1]
1^
1`
1b
1c
1f
#2000000
b1000001101000101111011101111111 !
b1101000101111011101111111 !
b10001101000101111011101111111 !
b10000101000101111011101111111 !
b10000101000111111011101111111 !
b10000101000110111011101111111 !
b10000101000110111001101111111 !
b10000101000110111001111111111 !
b10000101000110111001111011111 !
b10000101000110111001111011011 !
b10000101000110111001111011001 !
b110000101000110111001111011001 !
b110100101000110111001111011001 !
b110100100000110111001111011001 !
b110100100000010111001111011001 !
b110100100000010111101111011001 !
b110100100000010111101011011001 !
b110100100000010111101010011001 !
b110100100000010111101010010001 !
b110100100000010111101010010000 !
0H
1I
1J
1L
0N
0Q
0U
1V
0W
1[
0\
0^
1_
0`
0a
0c
0d
0e
0f
0)!
0(!
0A
#3000000
b111100100000010111101010010000 !
b111100100010010111101010010000 !
b111100100011010111101010010000 !
b111100000011010111101010010000 !
b111100010011010111101010010000 !
b111100010011010111101010000000 !
b10111100010011010111101010000000 !
b10111100010011000111101010000000 !
b10111100010011000111101000000000 !
b10111100010011000111101000000010 !
b10011100010011000111101000000010 !
b10011100011011000111101000000010 !
b10011100011011000111001000000010 !
b10011100011011000111001100000010 !
b10011100011011000111001101000010 !
b10011100011011000111001101001010 !
b10011100011011000111001101001011 !
0I
1K
0O
1P
1Q
1S
1T
0V
0[
1^
0_
1`
0b
1c
1e
1f
1)!
1(!
1A
#4000000
b10011100011011000011001101001011 !
b10011100011011000011000101001011 !
b11011100011011000011000101001011 !
b11001100011011000011000101001011 !
b11001100011011001011000101001011 !
b11001100011011001011010101001011 !
b11001100011011001011010101101011 !
b11001000011011001011010101101011 !
b11001000011011101011010101101011 !
b11001000011010101011010101101011 !
b11001000111010101011010101101011 !
b11001000111010101011010101111011 !
b11001000111010101011010111111011 !
b11001000111010101011010111111001 !
b11101000111010101011010111111001 !
b11101000111010101011110111111001 !
b11101000111010101011110011111001 !
b11101000111010101011110010111001 !
b11101000111010101011110010110001 !
1H
1I
0J
0L
1O
0T
1U
1W
0X
1[
1\
0]
0^
1_
0`
1a
1b
0c
0e
#5000000
b11101010111010101011110010110001 !
b11101010111010101001110010110001 !
b11101010111010101001110010110101 !
b11101010101010101001110010110101 !
b11101010101010101101110010110101 !
b10101010101010101101110010110101 !
b10111010101010101101110010110101 !
b10111010101010100101110010110101 !
b10111010101011100101110010110101 !
b10111010101011100101010010110101 !
b10111010101011100101010011110101 !
0H
1J
1M
0P
1T
0W
1X
0Y
0[
1`
1d
#6000000
b10111010101011100100010011110101 !
b10110010101011100100010011110101 !
b10110010101001100100010011110101 !
b10110010101001110100010011110101 !
b10110010100001110100010011110101 !
b10110010100001110100000011110101 !
b10110010100001110100000011010101 !
b10110010100001010100000011010101 !
b10110010000001010100000011010101 !
b10110010000001010100000011010111 !
b10110010000001010100000011011111 !
b10110010010001010100000011011111 !
b10110010010001010000000011011111 !
b10100010010001010000000011011111 !
b10100010010001010000100011011111 !
0J
0K
0O
1P
0Q
0S
0U
1V
0X
0Z
1[
0\
0a
1c
1e
#7000000
b10100010010101010000100011011111 !
b100010010101010000100011011111 !
b100010010101010000100011011110 !
b100010010101010000101011011110 !
b100110010101010000101011011110 !
b100110010101010000101111011110 !
b100100010101010000101111011110 !
b100100010101010000101111011010 !
b1100100010101010000101111011010 !
b1100100010101011000101111011010 !
b1100100010100011000101111011010 !
b1101100010100011000101111011010 !
b1101100010100001000101111011010 !
b1101100011100001000101111011010 !
b1101100011100001000111111011010 !
b1101100111100001000111111011010 !
b1101100111100001000111111011000 !
b1101100111100001000011111011000 !
1H
1K
1L
0M
1O
1Q
1R
0T
0V
1W
0[
1\
1]
1^
0d
0e
0f
0)!
0(!
0A
#8000000
b1101101111100001000011111011000 !
b1101101111110001000011111011000 !
b1101101111010001000011111011000 !
b11101101111010001000011111011000 !
b11101101111010001000010111011000 !
b11101111111010001000010111011000 !
b10101111111010001000010111011000 !
b10100111111010001000010111011000 !
b10100111111010011000010111011000 !
b10100111111010011000000111011000 !
b10100111011010011000000111011000 !
b10100111011010011000000111011010 !
0H
0K
1M
1N
0O
0R
1S
1V
0\
0]
1e
1)!
1(!
1A
#9000000
b10100111011010011000000101011010 !
b10000111011010011000000101011010 !
b10000111011010111000000101011010 !
b10000111011010111100000101011010 !
b10010111011010111100000101011010 !
b10010111011010111100000101011011 !
b10010011011010111100000101011011 !
b10010011011010111100000001011011 !
b10010011011010111100000001011111 !
b10010011011010111100100001011111 !
b10010011011110111100100001011111 !
b10010011011110111100101001011111 !
b10010001011110111100101001011111 !
b10010001011110101100101001011111 !
b10010001011110101100111001011111 !
b10010001011110101100111001011101 !
0I
1J
0L
0M
1R
1U
0V
1X
1[
1\
1]
0^
0_
1d
0e
1f
